<svg xmlns="http://www.w3.org/2000/svg" width="17.5" height="17.5" viewBox="0 0 17.5 17.5">
  <defs>
    <style>
      .cls-1 {
        fill: #001bad;
      }
    </style>
  </defs>
  <path id="inbox-icon" class="cls-1" d="M65.062,50.188,63.7,48.534A1.383,1.383,0,0,0,62.583,48H50.917a1.383,1.383,0,0,0-1.118.534l-1.361,1.653A1.693,1.693,0,0,0,48,51.4V63.555A1.95,1.95,0,0,0,49.945,65.5H63.556A1.95,1.95,0,0,0,65.5,63.555V51.4A1.692,1.692,0,0,0,65.062,50.188ZM56.75,62.1,51.4,56.75h3.4V54.805h3.889V56.75h3.4ZM50.042,49.944l.778-.972H62.486l.924.972Z" transform="translate(-48 -48)"/>
</svg>
