<svg xmlns="http://www.w3.org/2000/svg" width="20" height="20" viewBox="0 0 20 20">
  <path id="_ionicons_svg_md-close-circle" d="M58,48A10,10,0,1,0,68,58,9.965,9.965,0,0,0,58,48Zm5,13.6L61.6,63,58,59.4,54.4,63,53,61.6,56.6,58,53,54.4,54.4,53,58,56.6,61.6,53,63,54.4,59.4,58,63,61.6Z" transform="translate(-48 -48)" fill="#001bad"/>
</svg>
